[gd_scene load_steps=4 format=2]

[ext_resource path="res://icon.png" type="Texture" id=1]
[ext_resource path="res://Elements/Guns/Bullets/9mm.tscn" type="PackedScene" id=2]

[sub_resource type="GDScript" id=1]
script/source = "extends Node2D

export (StreamTexture) var icon = null


enum cycle {FULLAUTO,SEMIAUTO}

export (String) var gunName = \"Pistol\"

var clip = null
export (int) var clipSize = 60
export (float) var fireRate = .1
export (float) var fireAngle = 5
export (cycle) var cycleType = cycle.FULLAUTO

export (float) var reloadTime = 2.0

var ammo = null
export (int) var maxAmmo = 100

export (PackedScene) var bullet = null

export (AudioStream) var fireSound = null
export (AudioStream) var reloadSound = null

export (String) var type = null

var refire = true

var soundController = preload(\"res://Elements/Guns/gunshotSound.tscn\")
#signal updateUI

func _ready():
	init()
	updateUI()
#	connect(\"updateUI\",get_tree().get_nodes_in_group(\"activeUI\")[0],\"updateGun\")

func init():
	if clip == null:
		clip = clipSize
	if ammo == null:
		ammo = maxAmmo

func control(controls):
	gunCtrl({
		key = controls.fire,
		reload = controls.reload
		})

func gunCtrl(ctrl):
	if ctrl.reload:
		reload()
	# ctrl.key = 0 for no trigger, 1 for justpressed, 2 for hold trigger
	if cycleType == cycle.FULLAUTO and ctrl.key != 0:
		attemptFire()
	elif ctrl.key == 1:
		attemptFire()
	
func attemptFire():
	if clipSize == -1:
		fire()
	elif refire and clip > 0: #FIRE!
		fire()
	else: #clip empty, don't fire
		return

func fire():
	clip = clip - 1
	refire = false
	$refire.start(fireRate)

	var myBullet:Node2D = bullet.instance()
	myBullet.shooter = get_node(\"../../\")
	setup.currentLevel.add_child(myBullet)
	myBullet.global_transform = global_transform
	myBullet.rotate( deg2rad(fireAngle) * (randf() - 0.5))
	myBullet.fire()
	updateUI()
	playSound(fireSound)
	
func reload():
	print(\"reload pressed\")
	if $reload.time_left:
		return
	refire = false
	$refire.stop()
	print(\"reloading\")
	$reload.start(reloadTime)
	updateUI()
	
	playSound(reloadSound)

func _on_refire_timeout():
	refire = true
	updateUI()

func _on_reload_timeout():
	refire = true
	print(\"done reloading\")
	ammo = ammo + clip
	if maxAmmo == -1:
		clip = clipSize
		updateUI()
		return
	if ammo > 0:
		if clipSize > ammo:
			clip = ammo 
			ammo = 0
		else:
			clip = clipSize
			ammo = ammo - clipSize
	updateUI()
			
func updateUI():
	if get_parent().has_method(\"updateGun\"):
		get_parent().updateGun(self)
	
func isReloading():
	return bool($reload.time_left)
	
	
func playSound(sound):
	if sound:
		var mySound:AudioStreamPlayer2D = soundController.instance()
		mySound.stream = sound
		add_child(mySound)
"

[node name="gun" type="Node2D"]
script = SubResource( 1 )
icon = ExtResource( 1 )
maxAmmo = 99
bullet = ExtResource( 2 )
type = "none"

[node name="refire" type="Timer" parent="."]
process_mode = 0
one_shot = true

[node name="reload" type="Timer" parent="."]
process_mode = 0
one_shot = true
[connection signal="timeout" from="refire" to="." method="_on_refire_timeout"]
[connection signal="timeout" from="reload" to="." method="_on_reload_timeout"]
